{
    "USERDATA": [
        {
            "MiTE_000": {
                    "ID": "0",
                    "HOST_NAME": "MiTE-TEST-PC",
                    "MiTE_ID": "MiTE-000",
                    "USER_NAME": "MiTE",
                    "ACCESS_CODE": "gH5DpRSQb9NHRwjVrixY7yY3t",
                    "USER_EMAIL": "MiTE-AWS-PLateform@gmail.com",
                    "MOBILE": "123154748",
                    "VALIDITY": "2019-05-03",
                    "CLIENT_MAC": "02:42",
                    "REMARKS": "oem, Has been registered"
          },
        "MiTE_001":  {
              "ID": "1",
              "HOST_NAME": "Hari-PC002",
              "MiTE_ID": "MiTE_001",
              "USER_NAME": "Harry",
              "ACCESS_CODE": "uEbr6sDSCxVFbCI9zPoJzmDgU",
              "USER_EMAIL": "HarryTheDevopsGuy@gmail.com",
              "MOBILE": "123154748",
              "VALIDITY": "2019-07-29",
              "CLIENT_MAC": "222",
              "REMARKS": "oem, Has been registered"
          },
        "MiTE_002":  {
              "ID": "2",
              "HOST_NAME": "Hari-PC002",
              "MiTE_ID": "MiTE_002",
              "USER_NAME": "Harry",
              "ACCESS_CODE": "MDE5OGU5MWU5NzQ4NzRmNDI2N",
              "USER_EMAIL": "HarryTheDevOpsGuy@gmail.com",
              "MOBILE": "123154748",
              "VALIDITY": "2019-08-27",
              "CLIENT_MAC": "02:42:a0:70:97:dd 74:e6:e2:32:24:4a 4c:bb:58:31:db:a9",
              "REMARKS": "oem, Has been registered"
          },
        "MiTE_003":  {
              "ID": "3",
              "HOST_NAME": "Jumphost",
              "MiTE_ID": "MiTE_003",
              "USER_NAME": "JumpHost",
              "ACCESS_CODE": "NjVmOTQ1NzBiYzU1YWUzNzQ2M",
              "USER_EMAIL": "jumphost@kiwitech.com",
              "MOBILE": "123154748",
              "VALIDITY": "2019-08-27",
              "CLIENT_MAC": "02:42:8d:88:fc:c6 0a:7e:c6:40:81:26",
              "REMARKS": "ubuntu, Has been registered"
          },
        "MiTE_004":  {
              "ID": "4",
              "HOST_NAME": "hari-desktop",
              "MiTE_ID": "MiTE_004",
              "USER_NAME": "Harry",
              "ACCESS_CODE": "YWE0NmVhM2UzZGU3YzAwYjAxZ",
              "USER_EMAIL": "HarryTheITExpert@gmail.com",
              "MOBILE": "123154748",
              "VALIDITY": "2019-08-28",
              "CLIENT_MAC": "3a:3b:94:ec:fd:0f 00:e0:4c:6d:57:28",
              "REMARKS": "hari, Has been registered"
          },
        "MiTE_005":  {
              "ID": "5",
              "HOST_NAME": "pramod-Inspiron-3542",
              "MiTE_ID": "MiTE_005",
              "USER_NAME": "Prmaod",
              "ACCESS_CODE": "bdZa5BYhNMC4Xf9i5GP3bBW__",
              "USER_EMAIL": "askpramod@live.com",
              "MOBILE": "123154748",
              "VALIDITY": "2019-09-19",
              "CLIENT_MAC": "02:42:f6:4f:b6:4a 02:42:09:b4:7e:de 02:42:33:e4:66:7d 74:e6:e2:31:7e:ae 00:50:56:c0:00:01 00:50:56:c0:00:08 4c:bb:58:4d:0f:29",
              "REMARKS": "pramod, Has been registered"
          },
        "MiTE_006":  {
              "ID": "6",
              "HOST_NAME": "devops-pc2",
              "MiTE_ID": "MiTE_006",
              "USER_NAME": "DevOps PC2",
              "ACCESS_CODE": "OWQ0ODlhMDg5YmRmZDQ0ZDgwM",
              "USER_EMAIL": "devopspc2@kiwi.local",
              "MOBILE": "123154748",
              "VALIDITY": "2019-10-01",
              "CLIENT_MAC": "50:9a:4c:3c:69:8d",
              "REMARKS": "kiwitech, Has been registered"
          },
        "MiTE_007":  {
              "ID": "7",
              "HOST_NAME": "KT-PCLAP-048",
              "MiTE_ID": "MiTE_007",
              "USER_NAME": "Hari Prasad",
              "ACCESS_CODE": "NmFhODkxZTZjYmQyYWVjZTFiM",
              "USER_EMAIL": "Hari.prasad@kiwitech.com",
              "MOBILE": "123154748",
              "VALIDITY": "2020-05-11",
              "CLIENT_MAC": "f8:ca:b8:32:3d:b9 00:00:00:00:00:00 78:0c:b8:f8:73:3e",
              "REMARKS": "kiwitech, Has been registered"
          },
        "MiTE_008":  {
              "ID": "8",
              "HOST_NAME": "KT-PCLAP-077",
              "MiTE_ID": "MiTE_008",
              "USER_NAME": "Hari Prasad",
              "ACCESS_CODE": "YzRlYTg0YWJlMDJjMWNmMTI1O",
              "USER_EMAIL": "Hari.Prasad@kiwitech.com",
              "MOBILE": "123154748",
              "VALIDITY": "2020-05-15",
              "CLIENT_MAC": "10:7d:1a:3e:1b:d2 00:00:00:00:00:00 d4:6a:6a:33:bc:7d",
              "REMARKS": "kiwitech, Has been registered"
          },
        "MiTE_009":  {
              "ID": "9",
              "HOST_NAME": "jyoti-HP-Notebook",
              "MiTE_ID": "MiTE_009",
              "USER_NAME": "Harry",
              "ACCESS_CODE": "ZmE3YzdhNGUzZjZhZjhjNTZjZ",
              "USER_EMAIL": "HarryTheDevOpsGuy@gmail.com",
              "MOBILE": "123154748",
              "VALIDITY": "2021-07-18",
              "CLIENT_MAC": "",
              "REMARKS": "jyoti, Has been registered"
          },
        "MiTE_0010":  {
              "ID": "10",
              "HOST_NAME": "jyoti-HP-Notebook",
              "MiTE_ID": "MiTE_0010",
              "USER_NAME": "Harry",
              "ACCESS_CODE": "NjFhYWU4N2UyOWRjMGU4MTU1N",
              "USER_EMAIL": "HarryTheDevOpsGuy@gmail.com",
              "MOBILE": "123154748",
              "VALIDITY": "2021-09-25",
              "CLIENT_MAC": "",
              "REMARKS": "jyoti, Has been registered"
          },
        "MiTE_0011":  {
              "ID": "11",
              "HOST_NAME": "jyoti-HP-Notebook",
              "MiTE_ID": "MiTE_0011",
              "USER_NAME": "Harry",
              "ACCESS_CODE": "OWM5ODBhNDZiMTEwZGZiMjAwN",
              "USER_EMAIL": "HarryTheitexpert@gmail.com",
              "MOBILE": "123154748",
              "VALIDITY": "2021-12-27",
              "CLIENT_MAC": "",
              "REMARKS": "jyoti, Has been registered"
          }
        }
      ]
  }
